 This 5% Public Use Microdata Sample Equivalency (PUMEQ5) file is intended to help users understand the relationships        
 between standard Census 2000 geographic concepts (counties, county subdivisions, places, and census tracts) and the         
 SuperPUMA and PUMA geographic units of the 5% PUMS data files.                                                              
                                                                                                                             
 Each PUMEQ5 file delineates the summary level codes specific to the PUMS geography, and has its own set of summary          
 level code and hierarchical sequencing, as described below:                                                                 
                                                                                                                             
 780 State-SuperPUMA-PUMA                                                                                                    
     781 State-SuperPUMA-PUMA-County (or part)                                                                               
         782 State-SuperPUMA-PUMA-County-County Subdivision (or part) (20 states with functioning county subdivisions)       
             783 State-SuperPUMA-PUMA-County-County Subdivision-Place/Remainder (or part)                                    
                 784 State-SuperPUMA-PUMA-County-County Subdivision-Place/Remainder-Census Tract                             
                                                                                                                             
 Please note that in the New England states, there may be more than one summary level 781 record within a single             
 PUMA, since these areas may exist in more than one metropolitan area/nonmetropolitan area.  Please also                     
 note that county subdivision codes are not used in the 30 states, the District of Columbia, and Puerto Rico,                
 that have no functioning county subdivisions. Census tracts are shown only when a place has parts in more than              
 one PUMA.                                                                                                                   
                                                                                                                             
 The fields and content of the PUMEQ5 file is described below:                                                               
                                                                                                                             
   FIELD     DESCRIPTION                                                                                                     
                                                                                                                             
     A       Summary Level Code (described above)                                                                            
     B       FIPS State Code                                                                                                 
     C       SuperPUMA Code                                                                                                  
     D       PUMA Code                                                                                                       
     E       FIPS County Code                                                                                                
     F       FIPS County Subdivision Code                                                                                    
     G       FIPS Place Code                                                                                                 
     H       Central City Indicator:                                                                                         
               0 = Not in central city                                                                                       
               1 = In central city                                                                                           
     I       Census Tract Code                                                                                               
     J       Metropolitan Statistical Area/Consolidated Statistical Area Code                                                
     K       Primary Metropolitan Statistical Area Code                                                                      
     L       Census 2000 100% Population Count                                                                               
     M       Area Name                                                                                                       
                                                                                                                             
                                                                                                                             
   A  B     C     D   E     F     G H      I    J    K        L M                                                            
                                                                                                                             
 780 35 35100 00100                                      113801 PUMA 00100                                                   
 781 35 35100 00100 045                      9999        113801 San Juan County                                              
 783 35 35100 00100 045       05780 0        9999          6378 Aztec city                                                   
 783 35 35100 00100 045       06425 0        9999           339 Beclabito CDP                                                
 783 35 35100 00100 045       07880 0        9999          6417 Bloomfield city                                              
 783 35 35100 00100 045       19080 0        9999           199 Crystal CDP (part)                                           
 783 35 35100 00100 045       25800 0        9999         37844 Farmington city                                              
 783 35 35100 00100 045       26360 0        9999          1383 Flora Vista CDP                                              
 783 35 35100 00100 045       33762 0        9999           104 Huerfano CDP                                                 
 783 35 35100 00100 045       36230 0        9999          6190 Kirtland CDP                                                 
 783 35 35100 00100 045       50790 0        9999           296 Nageezi CDP                                                  
 783 35 35100 00100 045       51035 0        9999           706 Napi HQ CDP                                                  
 783 35 35100 00100 045       51280 0        9999           360 Naschitti CDP                                                
 783 35 35100 00100 045       51715 0        9999           726 Nenahnezad CDP                                               
 783 35 35100 00100 045       51770 0        9999           387 Newcomb CDP                                                  
 783 35 35100 00100 045       53485 0        9999           829 Ojo Amarillo CDP                                             
 783 35 35100 00100 045       69620 0        9999           429 Sanostee CDP                                                 
 783 35 35100 00100 045       72600 0        9999           237 Sheep Springs CDP                                            
 783 35 35100 00100 045       72770 0        9999          8156 Shiprock CDP                                                 
 783 35 35100 00100 045       81177 0        9999          1664 Upper Fruitland CDP                                          
 783 35 35100 00100 045       99999 0        9999         41157 Remainder of San Juan County                                 
 780 35 35100 00200                                      111155 PUMA 00200                                                   
 781 35 35100 00200 019                      9999          4680 Guadalupe County                                             
 783 35 35100 00200 019       70670 0        9999          2744 Santa Rosa city                                              
 783 35 35100 00200 019       82570 0        9999           539 Vaughn town                                                  
 783 35 35100 00200 019       99999 0        9999          1397 Remainder of Guadalupe County                                
 781 35 35100 00200 033                      9999          5180 Mora County                                                  
 783 35 35100 00200 033       83340 0        9999           369 Wagon Mound village                                          
 783 35 35100 00200 033       99999 0        9999          4811 Remainder of Mora County                                     
 781 35 35100 00200 039                      9999         41190 Rio Arriba County                                            
 783 35 35100 00200 039       02070 0        9999           377 Alcalde CDP                                                  
 783 35 35100 00200 039       13970 0        9999          1199 Chama village                                                
 783 35 35100 00200 039       14950 0        9999          2294 Chimayo CDP (part)                                           
 783 35 35100 00200 039       21390 0        9999          2623 Dulce CDP                                                    
 783 35 35100 00200 039       25170 0        9999          7105 Espanola city (part)                                         
 783 35 35100 00200 039       68705 0        9999           592 San Juan CDP                                                 
 783 35 35100 00200 039       70390 0        9999           980 Santa Clara Pueblo CDP                                       
 783 35 35100 00200 039       99999 0        9999         26020 Remainder of Rio Arriba County                               
 781 35 35100 00200 047                      9999         30126 San Miguel County                                            
 783 35 35100 00200 047       39940 0        9999         14565 Las Vegas city                                               
 783 35 35100 00200 047       50300 0        9999             0 Mosquero village (part)                                      
 783 35 35100 00200 047       55620 0        9999          1441 Pecos village                                                
 783 35 35100 00200 047       99999 0        9999         14120 Remainder of San Miguel County                               
 781 35 35100 00200 055                      9999         29979 Taos County                                                  
 783 35 35100 00200 055       14110 0        9999           301 Chamisal CDP                                                 
 783 35 35100 00200 055       55900 0        9999           572 Penasco CDP                                                  
 783 35 35100 00200 055       56810 0        9999            86 Picuris Pueblo CDP                                           
 783 35 35100 00200 055       60870 0        9999          1864 Questa village                                               
 783 35 35100 00200 055       61710 0        9999          2390 Ranchos de Taos CDP                                          
 783 35 35100 00200 055       62200 0        9999           484 Red River town                                               
 783 35 35100 00200 055       63250 0        9999           379 Rio Lucio CDP                                                
 783 35 35100 00200 055       76200 0        9999          4700 Taos town                                                    
 783 35 35100 00200 055       76410 0        9999          1264 Taos Pueblo CDP                                              
 783 35 35100 00200 055       76480 0        9999            56 Taos Ski Valley village                                      
 783 35 35100 00200 055       81520 0        9999           242 Vadito CDP                                                   
 783 35 35100 00200 055       99999 0        9999         17641 Remainder of Taos County                                     
 780 35 35100 00300                                      114041 PUMA 00300                                                   
 781 35 35100 00300 007                      9999         14189 Colfax County                                                
 783 35 35100 00300 007       03400 0        9999          1048 Angel Fire village                                           
 783 35 35100 00300 007       15440 0        9999           917 Cimarron village                                             
 783 35 35100 00300 007       22020 0        9999           306 Eagle Nest village                                           
 783 35 35100 00300 007       47080 0        9999           274 Maxwell village                                              
 783 35 35100 00300 007       62060 0        9999          7282 Raton city                                                   
 783 35 35100 00300 007       74800 0        9999          1285 Springer town                                                
 783 35 35100 00300 007       99999 0        9999          3077 Remainder of Colfax County                                   
 781 35 35100 00300 009                      9999         45044 Curry County                                                 
 783 35 35100 00300 009       10750 0        9999          2557 Cannon AFB CDP                                               
 783 35 35100 00300 009       16420 0        9999         32667 Clovis city                                                  
 783 35 35100 00300 009       30210 0        9999            98 Grady village                                                
 783 35 35100 00300 009       47570 0        9999           736 Melrose village                                              
 783 35 35100 00300 009       77250 0        9999          1065 Texico city                                                  
 783 35 35100 00300 009       99999 0        9999          7921 Remainder of Curry County                                    
 781 35 35100 00300 011                      9999          2240 De Baca County                                               
 783 35 35100 00300 011       27340 0        9999          1249 Fort Sumner village                                          
 783 35 35100 00300 011       37875 0        9999            86 Lake Sumner CDP                                              
 783 35 35100 00300 011       99999 0        9999           905 Remainder of De Baca County                                  
 781 35 35100 00300 021                      9999           810 Harding County                                               
 783 35 35100 00300 021       50300 0        9999           120 Mosquero village (part)                                      
 783 35 35100 00300 021       65070 0        9999           304 Roy village                                                  
 783 35 35100 00300 021       99999 0        9999           386 Remainder of Harding County                                  
 781 35 35100 00300 027                      9999         19411 Lincoln County                                               
 783 35 35100 00300 027       11800 0        9999          1443 Capitan village                                              
 783 35 35100 00300 027       12500 0        9999          1036 Carrizozo town                                               
 783 35 35100 00300 027       17680 0        9999           165 Corona village                                               
 783 35 35100 00300 027       65210 0        9999          7698 Ruidoso village                                              
 783 35 35100 00300 027       65280 0        9999          1824 Ruidoso Downs village                                        
 783 35 35100 00300 027       99999 0        9999          7245 Remainder of Lincoln County                                  
 781 35 35100 00300 037                      9999         10155 Quay County                                                  
 783 35 35100 00300 037       33710 0        9999            72 House village                                                
 783 35 35100 00300 037       42040 0        9999          1094 Logan village                                                
 783 35 35100 00300 037       68150 0        9999           306 San Jon village                                              
 783 35 35100 00300 037       79910 0        9999          5989 Tucumcari city                                               
 783 35 35100 00300 037       99999 0        9999          2694 Remainder of Quay County                                     
 781 35 35100 00300 041                      9999         18018 Roosevelt County                                             
 783 35 35100 00300 041       12850 0        9999            52 Causey village                                               
 783 35 35100 00300 041       21180 0        9999           130 Dora village                                                 
 783 35 35100 00300 041       23000 0        9999           183 Elida town                                                   
 783 35 35100 00300 041       26570 0        9999            78 Floyd village                                                
 783 35 35100 00300 041       59260 0        9999         11131 Portales city                                                
 783 35 35100 00300 041       99999 0        9999          6444 Remainder of Roosevelt County                                
 781 35 35100 00300 059                      9999          4174 Union County                                                 
 783 35 35100 00300 059       15720 0        9999          2524 Clayton town                                                 
 783 35 35100 00300 059       20480 0        9999           177 Des Moines village                                           
 783 35 35100 00300 059       26780 0        9999            75 Folsom village                                               
 783 35 35100 00300 059       30770 0        9999            25 Grenville village                                            
 783 35 35100 00300 059       99999 0        9999          1373 Remainder of Union County                                    
 780 35 35100 00800                                      113752 PUMA 00800                                                   
 781 35 35100 00800 003                      9999          3543 Catron County                                                
 783 35 35100 00800 003       62620 0        9999           387 Reserve village                                              
 783 35 35100 00800 003       99999 0        9999          3156 Remainder of Catron County                                   
 781 35 35100 00800 017                      9999         31002 Grant County                                                 
 783 35 35100 00800 017       06270 0        9999          2534 Bayard city                                                  
 783 35 35100 00800 017       33850 0        9999          1464 Hurley town                                                  
 783 35 35100 00800 017       70270 0        9999          1944 Santa Clara village                                          
 783 35 35100 00800 017       73260 0        9999         10545 Silver City town                                             
 783 35 35100 00800 017       99999 0        9999         14515 Remainder of Grant County                                    
 781 35 35100 00800 023                      9999          5932 Hidalgo County                                               
 783 35 35100 00800 023       42180 0        9999          3379 Lordsburg city                                               
 783 35 35100 00800 023       83200 0        9999           143 Virden village                                               
 783 35 35100 00800 023       99999 0        9999          2410 Remainder of Hidalgo County                                  
 781 35 35100 00800 029                      9999         25016 Luna County                                                  
 783 35 35100 00800 029       17050 0        9999          1765 Columbus village                                             
 783 35 35100 00800 029       20270 0        9999         14116 Deming city                                                  
 783 35 35100 00800 029       99999 0        9999          9135 Remainder of Luna County                                     
 781 35 35100 00800 051                      9999         13270 Sierra County                                                
 783 35 35100 00800 051       22720 0        9999          1390 Elephant Butte city                                          
 783 35 35100 00800 051       79840 0        9999          7289 Truth or Consequences city                                   
 783 35 35100 00800 051       85300 0        9999           527 Williamsburg village                                         
 783 35 35100 00800 051       99999 0        9999          4064 Remainder of Sierra County                                   
 781 35 35100 00800 053                      9999         18078 Socorro County                                               
 783 35 35100 00800 053       01710 0        9999          1183 Alamo CDP                                                    
 783 35 35100 00800 053       46310 0        9999           913 Magdalena village                                            
 783 35 35100 00800 053       73540 0        9999          8877 Socorro city                                                 
 783 35 35100 00800 053       99999 0        9999          7105 Remainder of Socorro County                                  
 781 35 35100 00800 057                      9999         16911 Torrance County                                              
 783 35 35100 00800 057       24610 0        9999            94 Encino village                                               
 783 35 35100 00800 057       25380 0        9999          1584 Estancia town                                                
 783 35 35100 00800 057       46730 0        9999            54 Manzano CDP                                                  
 783 35 35100 00800 057       50160 0        9999          1765 Moriarty city                                                
 783 35 35100 00800 057       50370 0        9999          1116 Mountainair town                                             
 783 35 35100 00800 057       76060 0        9999           148 Tajique CDP                                                  
 783 35 35100 00800 057       79140 0        9999           244 Torreon CDP                                                  
 783 35 35100 00800 057       85160 0        9999           240 Willard village                                              
 783 35 35100 00800 057       99999 0        9999         11666 Remainder of Torrance County                                 
 780 35 35200 00400                                      147635 PUMA 00400                                                   
 781 35 35200 00400 028                      7490         18343 Los Alamos County                                            
 783 35 35200 00400 028       42320 0        7490         11909 Los Alamos CDP                                               
 783 35 35200 00400 028       84740 0        7490          6045 White Rock CDP                                               
 783 35 35200 00400 028       99999 0        7490           389 Remainder of Los Alamos County                               
 781 35 35200 00400 049                      7490        129292 Santa Fe County                                              
 783 35 35200 00400 049       01220 0        7490          2051 Agua Fria CDP                                                
 783 35 35200 00400 049       10470 0        7490           358 Canada de los Alamos CDP                                     
 783 35 35200 00400 049       13270 0        7490           599 Cedar Grove CDP                                              
 783 35 35200 00400 049       14950 0        7490           630 Chimayo CDP (part)                                           
 783 35 35200 00400 049       15300 0        7490           318 Chupadero CDP                                                
 783 35 35200 00400 049       19110 0        7490           452 Cuartelez CDP                                                
 783 35 35200 00400 049       19500 0        7490            95 Cundiyo CDP                                                  
 783 35 35200 00400 049       19640 0        7490           421 Cuyamungue CDP                                               
 783 35 35200 00400 049       22380 0        7490          1893 Edgewood town                                                
 783 35 35200 00400 049       22625 0        7490          5799 Eldorado at Santa Fe CDP                                     
 783 35 35200 00400 049       23840 0        7490           817 El Rancho CDP                                                
 783 35 35200 00400 049       24347 0        7490          1149 El Valle de Arroyo Seco CDP                                  
 783 35 35200 00400 049       25170 0        7490          2583 Espanola city (part)                                         
 783 35 35200 00400 049       27970 0        7490           265 Galisteo CDP                                                 
 783 35 35200 00400 049       29860 0        7490           859 Glorieta CDP                                                 
 783 35 35200 00400 049       34925 0        7490           343 Jaconita CDP                                                 
 783 35 35200 00400 049       36720 0        7490          3007 La Cienega CDP                                               
 783 35 35200 00400 049       38890 0        7490           137 Lamy CDP                                                     
 783 35 35200 00400 049       39170 0        7490          1296 La Puebla CDP                                                
 783 35 35200 00400 049       42600 0        7490           229 Los Cerrillos CDP                                            
 783 35 35200 00400 049       46100 0        7490           149 Madrid CDP                                                   
 783 35 35200 00400 049       58630 0        7490          1261 Pojoaque CDP                                                 
 783 35 35200 00400 049       63110 0        7490           103 Rio Chiquito CDP                                             
 783 35 35200 00400 049       63168 0        7490           131 Rio en Medio CDP                                             
 783 35 35200 00400 049       68010 0        7490           458 San Ildefonso Pueblo CDP                                     
 783 35 35200 00400 049       70460 0        7490           423 Santa Cruz CDP                                               
 783 35 35200 00400 049       70500 1        7490         62203 Santa Fe city                                                
 783 35 35200 00400 049       73890 0        7490           493 Sombrillo CDP                                                
 783 35 35200 00400 049       77040 0        7490           909 Tesuque CDP                                                  
 783 35 35200 00400 049       99999 0        7490         39861 Remainder of Santa Fe County                                 
 780 35 35200 00500                                      156060 PUMA 00500                                                   
 781 35 35200 00500 043                      0200         89908 Sandoval County                                              
 783 35 35200 00500 043       02210 0        0200           688 Algodones CDP                                                
 783 35 35200 00500 043       06970 0        0200          6611 Bernalillo town                                              
 783 35 35200 00500 043       16560 0        0200           507 Cochiti CDP                                                  
 783 35 35200 00500 043       17960 0        0200          6658 Corrales village (part)                                      
 783 35 35200 00500 043       19150 0        0200           590 Cuba village                                                 
 783 35 35200 00500 043       35250 0        0200          1953 Jemez Pueblo CDP                                             
 783 35 35200 00500 043       35320 0        0200           375 Jemez Springs village                                        
 783 35 35200 00500 043       37490 0        0200           209 La Jara CDP                                                  
 783 35 35200 00500 043       55830 0        0200           661 Pena Blanca CDP                                              
 783 35 35200 00500 043       58070 0        0200          3452 Placitas CDP                                                 
 783 35 35200 00500 043       58980 0        0200           310 Ponderosa CDP                                                
 783 35 35200 00500 043       59950 0        0200           344 Pueblo of Sandia Village CDP                                 
 783 35 35200 00500 043       62340 0        0200            99 Regina CDP                                                   
 783 35 35200 00500 043       63460 0        0200         51765 Rio Rancho city (part)                                       
 783 35 35200 00500 043       67450 0        0200          2080 San Felipe Pueblo CDP                                        
 783 35 35200 00500 043       70250 0        0200           479 Santa Ana Pueblo CDP                                         
 783 35 35200 00500 043       70810 0        0200          2550 Santo Domingo Pueblo CDP                                     
 783 35 35200 00500 043       71020 0        0200           238 San Ysidro village                                           
 783 35 35200 00500 043       79070 0        0200           297 Torreon CDP                                                  
 783 35 35200 00500 043       86420 0        0200           646 Zia Pueblo CDP                                               
 783 35 35200 00500 043       99999 0        0200          9396 Remainder of Sandoval County                                 
 781 35 35200 00500 061                      0200         66152 Valencia County                                              
 783 35 35200 00500 061       06480 0        0200          6901 Belen city                                                   
 783 35 35200 00500 061       08580 0        0200          3931 Bosque Farms village                                         
 783 35 35200 00500 061       12786 0        0200            56 Casa Colorada CDP                                            
 783 35 35200 00500 061       22584 0        0200          5483 El Cerro-Monterey Park CDP                                   
 783 35 35200 00500 061       35110 0        0200          1434 Jarales CDP                                                  
 783 35 35200 00500 061       42740 0        0200          5033 Los Chaves CDP                                               
 783 35 35200 00500 061       43370 0        0200         10034 Los Lunas village                                            
 783 35 35200 00500 061       44145 0        0200          2166 Los Trujillos-Gabaldon CDP                                   
 783 35 35200 00500 061       47220 0        0200          4491 Meadow Lake CDP                                              
 783 35 35200 00500 061       56180 0        0200          3750 Peralta CDP                                                  
 783 35 35200 00500 061       63145 0        0200          4213 Rio Communities CDP                                          
 783 35 35200 00500 061       63156 0        0200          1588 Rio Communities North CDP                                    
 783 35 35200 00500 061       78685 0        0200          2211 Tome-Adelino CDP                                             
 783 35 35200 00500 061       81800 0        0200          4500 Valencia CDP                                                 
 783 35 35200 00500 061       99999 0        0200         10361 Remainder of Valencia County                                 
 780 35 35200 00700                                      100393 PUMA 00700                                                   
 781 35 35200 00700 006                      9999         25595 Cibola County                                                
 783 35 35200 00700 006       00765 0        9999           312 Acomita Lake CDP                                             
 783 35 35200 00700 006       24540 0        9999           200 Encinal CDP                                                  
 783 35 35200 00700 006       30490 0        9999          8806 Grants city                                                  
 783 35 35200 00700 006       37070 0        9999           423 Laguna CDP                                                   
 783 35 35200 00700 006       48200 0        9999           776 Mesita CDP                                                   
 783 35 35200 00700 006       48620 0        9999          1891 Milan village                                                
 783 35 35200 00700 006       52300 0        9999           288 North Acomita Village CDP                                    
 783 35 35200 00700 006       54710 0        9999           474 Paguate CDP                                                  
 783 35 35200 00700 006       55340 0        9999           669 Paraje CDP                                                   
 783 35 35200 00700 006       57190 0        9999           116 Pinehill CDP                                                 
 783 35 35200 00700 006       71440 0        9999           333 Seama CDP                                                    
 783 35 35200 00700 006       73440 0        9999          1035 Skyline-Ganipa CDP                                           
 783 35 35200 00700 006       99999 0        9999         10272 Remainder of Cibola County                                   
 781 35 35200 00700 031                      9999         74798 McKinley County                                              
 783 35 35200 00700 031       07670 0        9999          1252 Black Rock CDP                                               
 783 35 35200 00700 031       09035 0        9999           373 Brimhall Nizhoni CDP                                         
 783 35 35200 00700 031       15370 0        9999          1077 Church Rock CDP                                              
 783 35 35200 00700 031       18940 0        9999          2630 Crownpoint CDP                                               
 783 35 35200 00700 031       19080 0        9999           148 Crystal CDP (part)                                           
 783 35 35200 00700 031       28460 0        9999         20209 Gallup city                                                  
 783 35 35200 00700 031       50860 0        9999           455 Nakaibito CDP                                                
 783 35 35200 00700 031       51420 0        9999          2097 Navajo CDP                                                   
 783 35 35200 00700 031       60000 0        9999           247 Pueblo Pintado CDP                                           
 783 35 35200 00700 031       61220 0        9999           407 Ramah CDP                                                    
 783 35 35200 00700 031       64230 0        9999           558 Rock Springs CDP                                             
 783 35 35200 00700 031       77530 0        9999          1863 Thoreau CDP                                                  
 783 35 35200 00700 031       78440 0        9999          1037 Tohatchi CDP                                                 
 783 35 35200 00700 031       79885 0        9999           261 Tse Bonito CDP                                               
 783 35 35200 00700 031       80540 0        9999          1069 Twin Lakes CDP                                               
 783 35 35200 00700 031       85860 0        9999           580 Yah-ta-hey CDP                                               
 783 35 35200 00700 031       86595 0        9999          6367 Zuni Pueblo CDP                                              
 783 35 35200 00700 031       99999 0        9999         34168 Remainder of McKinley County                                 
 780 35 35300 00601                                      146456 PUMA 00601                                                   
 781 35 35300 00601 001                      0200        146456 Bernalillo County (part)                                     
 783 35 35300 00601 001       02000 1        0200        127927 Albuquerque city (part)                                      
 784 35 35300 00601 001       02000 1 000107 0200          2771 Albuquerque city (part)                                      
 784 35 35300 00601 001       02000 1 000108 0200          2669 Albuquerque city (part)                                      
 784 35 35300 00601 001       02000 1 000109 0200          2597 Albuquerque city (part)                                      
 784 35 35300 00601 001       02000 1 000110 0200          3504 Albuquerque city (part)                                      
 784 35 35300 00601 001       02000 1 000111 0200          2381 Albuquerque city (part)                                      
 784 35 35300 00601 001       02000 1 000112 0200          2145 Albuquerque city (part)                                      
 784 35 35300 00601 001       02000 1 000113 0200          3150 Albuquerque city (part)                                      
 784 35 35300 00601 001       02000 1 000114 0200          3322 Albuquerque city (part)                                      
 784 35 35300 00601 001       02000 1 000115 0200          3057 Albuquerque city (part)                                      
 784 35 35300 00601 001       02000 1 000116 0200          3122 Albuquerque city (part)                                      
 784 35 35300 00601 001       02000 1 000117 0200          2263 Albuquerque city (part)                                      
 784 35 35300 00601 001       02000 1 000118 0200          2625 Albuquerque city (part)                                      
 784 35 35300 00601 001       02000 1 000119 0200          1819 Albuquerque city (part)                                      
 784 35 35300 00601 001       02000 1 000120 0200          2766 Albuquerque city (part)                                      
 784 35 35300 00601 001       02000 1 000121 0200          5774 Albuquerque city (part)                                      
 784 35 35300 00601 001       02000 1 000122 0200          4053 Albuquerque city (part)                                      
 784 35 35300 00601 001       02000 1 000203 0200          1972 Albuquerque city (part)                                      
 784 35 35300 00601 001       02000 1 000206 0200          3212 Albuquerque city (part)                                      
 784 35 35300 00601 001       02000 1 000207 0200          3396 Albuquerque city (part)                                      
 784 35 35300 00601 001       02000 1 003707 0200          4895 Albuquerque city (part)                                      
 784 35 35300 00601 001       02000 1 003712 0200          5435 Albuquerque city (part)                                      
 784 35 35300 00601 001       02000 1 003715 0200          4459 Albuquerque city (part)                                      
 784 35 35300 00601 001       02000 1 003717 0200          5391 Albuquerque city (part)                                      
 784 35 35300 00601 001       02000 1 003718 0200          2474 Albuquerque city (part)                                      
 784 35 35300 00601 001       02000 1 003719 0200          4887 Albuquerque city (part)                                      
 784 35 35300 00601 001       02000 1 003721 0200          3391 Albuquerque city (part)                                      
 784 35 35300 00601 001       02000 1 003722 0200          2586 Albuquerque city (part)                                      
 784 35 35300 00601 001       02000 1 003723 0200          6376 Albuquerque city (part)                                      
 784 35 35300 00601 001       02000 1 003724 0200          3584 Albuquerque city (part)                                      
 784 35 35300 00601 001       02000 1 003725 0200          4708 Albuquerque city (part)                                      
 784 35 35300 00601 001       02000 1 003726 0200          2406 Albuquerque city (part)                                      
 784 35 35300 00601 001       02000 1 003727 0200          7800 Albuquerque city (part)                                      
 784 35 35300 00601 001       02000 1 003728 0200          4686 Albuquerque city (part)                                      
 784 35 35300 00601 001       02000 1 003729 0200             0 Albuquerque city (part)                                      
 784 35 35300 00601 001       02000 1 003730 0200          4114 Albuquerque city (part)                                      
 784 35 35300 00601 001       02000 1 003732 0200          4137 Albuquerque city (part)                                      
 784 35 35300 00601 001       02000 1 003805 0200             0 Albuquerque city (part)                                      
 783 35 35300 00601 001       12430 0        0200           872 Carnuel CDP (part)                                           
 783 35 35300 00601 001       13200 0        0200          1060 Cedar Crest CDP                                              
 783 35 35300 00601 001       77880 0        0200           126 Tijeras village (part)                                       
 784 35 35300 00601 001       77880 0 003804 0200           103 Tijeras village (part)                                       
 784 35 35300 00601 001       77880 0 003805 0200            23 Tijeras village (part)                                       
 783 35 35300 00601 001       99999 0        0200         16471 Remainder of Bernalillo County (part)                        
 784 35 35300 00601 001       99999 0 003712 0200             0 Remainder of Bernalillo County (part)                        
 784 35 35300 00601 001       99999 0 003720 0200          2671 Remainder of Bernalillo County (part)                        
 784 35 35300 00601 001       99999 0 003721 0200          1119 Remainder of Bernalillo County (part)                        
 784 35 35300 00601 001       99999 0 003722 0200            34 Remainder of Bernalillo County (part)                        
 784 35 35300 00601 001       99999 0 003723 0200             0 Remainder of Bernalillo County (part)                        
 784 35 35300 00601 001       99999 0 003729 0200          1348 Remainder of Bernalillo County (part)                        
 784 35 35300 00601 001       99999 0 003730 0200           104 Remainder of Bernalillo County (part)                        
 784 35 35300 00601 001       99999 0 003731 0200          2398 Remainder of Bernalillo County (part)                        
 784 35 35300 00601 001       99999 0 003732 0200           747 Remainder of Bernalillo County (part)                        
 784 35 35300 00601 001       99999 0 003803 0200          2767 Remainder of Bernalillo County (part)                        
 784 35 35300 00601 001       99999 0 003804 0200          4506 Remainder of Bernalillo County (part)                        
 784 35 35300 00601 001       99999 0 003805 0200           777 Remainder of Bernalillo County (part)                        
 780 35 35300 00602                                      100005 PUMA 00602                                                   
 781 35 35300 00602 001                      0200        100005 Bernalillo County (part)                                     
 783 35 35300 00602 001       02000 1        0200         87737 Albuquerque city (part)                                      
 784 35 35300 00602 001       02000 1 000123 0200          5035 Albuquerque city (part)                                      
 784 35 35300 00602 001       02000 1 000124 0200          3483 Albuquerque city (part)                                      
 784 35 35300 00602 001       02000 1 000125 0200          4494 Albuquerque city (part)                                      
 784 35 35300 00602 001       02000 1 000126 0200          2923 Albuquerque city (part)                                      
 784 35 35300 00602 001       02000 1 000127 0200          2907 Albuquerque city (part)                                      
 784 35 35300 00602 001       02000 1 000128 0200          3302 Albuquerque city (part)                                      
 784 35 35300 00602 001       02000 1 000129 0200          4502 Albuquerque city (part)                                      
 784 35 35300 00602 001       02000 1 000603 0200          5109 Albuquerque city (part)                                      
 784 35 35300 00602 001       02000 1 000604 0200          3976 Albuquerque city (part)                                      
 784 35 35300 00602 001       02000 1 000704 0200          3724 Albuquerque city (part)                                      
 784 35 35300 00602 001       02000 1 000707 0200          5769 Albuquerque city (part)                                      
 784 35 35300 00602 001       02000 1 000708 0200          4571 Albuquerque city (part)                                      
 784 35 35300 00602 001       02000 1 000710 0200          3342 Albuquerque city (part)                                      
 784 35 35300 00602 001       02000 1 000711 0200          4792 Albuquerque city (part)                                      
 784 35 35300 00602 001       02000 1 000712 0200          4454 Albuquerque city (part)                                      
 784 35 35300 00602 001       02000 1 000713 0200          5454 Albuquerque city (part)                                      
 784 35 35300 00602 001       02000 1 000714 0200          2755 Albuquerque city (part)                                      
 784 35 35300 00602 001       02000 1 000801 0200           218 Albuquerque city (part)                                      
 784 35 35300 00602 001       02000 1 000901 0200          7633 Albuquerque city (part)                                      
 784 35 35300 00602 001       02000 1 000903 0200          5361 Albuquerque city (part)                                      
 784 35 35300 00602 001       02000 1 000904 0200          3933 Albuquerque city (part)                                      
 783 35 35300 00602 001       12430 0        0200             0 Carnuel CDP (part)                                           
 784 35 35300 00602 001       12430 0 000711 0200             0 Carnuel CDP (part)                                           
 783 35 35300 00602 001       14880 0        0200           113 Chilili CDP                                                  
 783 35 35300 00602 001       77880 0        0200           348 Tijeras village (part)                                       
 784 35 35300 00602 001       77880 0 003806 0200           336 Tijeras village (part)                                       
 784 35 35300 00602 001       77880 0 003807 0200            12 Tijeras village (part)                                       
 783 35 35300 00602 001       99999 0        0200         11807 Remainder of Bernalillo County (part)                        
 784 35 35300 00602 001       99999 0 000604 0200             0 Remainder of Bernalillo County (part)                        
 784 35 35300 00602 001       99999 0 000710 0200           269 Remainder of Bernalillo County (part)                        
 784 35 35300 00602 001       99999 0 000711 0200             0 Remainder of Bernalillo County (part)                        
 784 35 35300 00602 001       99999 0 000713 0200             0 Remainder of Bernalillo County (part)                        
 784 35 35300 00602 001       99999 0 000714 0200             0 Remainder of Bernalillo County (part)                        
 784 35 35300 00602 001       99999 0 000801 0200          4539 Remainder of Bernalillo County (part)                        
 784 35 35300 00602 001       99999 0 000903 0200            11 Remainder of Bernalillo County (part)                        
 784 35 35300 00602 001       99999 0 003806 0200          2711 Remainder of Bernalillo County (part)                        
 784 35 35300 00602 001       99999 0 003807 0200          4277 Remainder of Bernalillo County (part)                        
 780 35 35300 00603                                      103234 PUMA 00603                                                   
 781 35 35300 00603 001                      0200        103234 Bernalillo County (part)                                     
 783 35 35300 00603 001       02000 1        0200         77533 Albuquerque city (part)                                      
 784 35 35300 00603 001       02000 1 003501 0200          1105 Albuquerque city (part)                                      
 784 35 35300 00603 001       02000 1 003502 0200          1276 Albuquerque city (part)                                      
 784 35 35300 00603 001       02000 1 003600 0200             9 Albuquerque city (part)                                      
 784 35 35300 00603 001       02000 1 003714 0200          6323 Albuquerque city (part)                                      
 784 35 35300 00603 001       02000 1 003733 0200          2957 Albuquerque city (part)                                      
 784 35 35300 00603 001       02000 1 003734 0200          2561 Albuquerque city (part)                                      
 784 35 35300 00603 001       02000 1 004716 0200          1111 Albuquerque city (part)                                      
 784 35 35300 00603 001       02000 1 004717 0200          5708 Albuquerque city (part)                                      
 784 35 35300 00603 001       02000 1 004718 0200          3262 Albuquerque city (part)                                      
 784 35 35300 00603 001       02000 1 004719 0200          4746 Albuquerque city (part)                                      
 784 35 35300 00603 001       02000 1 004720 0200          1685 Albuquerque city (part)                                      
 784 35 35300 00603 001       02000 1 004721 0200          2378 Albuquerque city (part)                                      
 784 35 35300 00603 001       02000 1 004722 0200          3382 Albuquerque city (part)                                      
 784 35 35300 00603 001       02000 1 004723 0200          7023 Albuquerque city (part)                                      
 784 35 35300 00603 001       02000 1 004724 0200          3273 Albuquerque city (part)                                      
 784 35 35300 00603 001       02000 1 004725 0200          3158 Albuquerque city (part)                                      
 784 35 35300 00603 001       02000 1 004726 0200          2682 Albuquerque city (part)                                      
 784 35 35300 00603 001       02000 1 004727 0200          2072 Albuquerque city (part)                                      
 784 35 35300 00603 001       02000 1 004728 0200          3221 Albuquerque city (part)                                      
 784 35 35300 00603 001       02000 1 004729 0200          2355 Albuquerque city (part)                                      
 784 35 35300 00603 001       02000 1 004730 0200          8181 Albuquerque city (part)                                      
 784 35 35300 00603 001       02000 1 004731 0200          8419 Albuquerque city (part)                                      
 784 35 35300 00603 001       02000 1 004800 0200           646 Albuquerque city (part)                                      
 783 35 35300 00603 001       17960 0        0200           676 Corrales village (part)                                      
 783 35 35300 00603 001       43930 0        0200          4776 Los Ranchos de Albuquerque village (part)                    
 784 35 35300 00603 001       43930 0 003501 0200           797 Los Ranchos de Albuquerque village (part)                    
 784 35 35300 00603 001       43930 0 003502 0200          3557 Los Ranchos de Albuquerque village (part)                    
 784 35 35300 00603 001       43930 0 003600 0200           422 Los Ranchos de Albuquerque village (part)                    
 783 35 35300 00603 001       52750 0        0200         11416 North Valley CDP (part)                                      
 784 35 35300 00603 001       52750 0 003501 0200          3398 North Valley CDP (part)                                      
 784 35 35300 00603 001       52750 0 003600 0200          5820 North Valley CDP (part)                                      
 784 35 35300 00603 001       52750 0 003734 0200          2198 North Valley CDP (part)                                      
 783 35 35300 00603 001       63460 0        0200             0 Rio Rancho city (part)                                       
 783 35 35300 00603 001       99999 0        0200          8833 Remainder of Bernalillo County (part)                        
 784 35 35300 00603 001       99999 0 003502 0200           339 Remainder of Bernalillo County (part)                        
 784 35 35300 00603 001       99999 0 003600 0200             0 Remainder of Bernalillo County (part)                        
 784 35 35300 00603 001       99999 0 003734 0200            27 Remainder of Bernalillo County (part)                        
 784 35 35300 00603 001       99999 0 004716 0200           528 Remainder of Bernalillo County (part)                        
 784 35 35300 00603 001       99999 0 004718 0200             0 Remainder of Bernalillo County (part)                        
 784 35 35300 00603 001       99999 0 004719 0200          1180 Remainder of Bernalillo County (part)                        
 784 35 35300 00603 001       99999 0 004720 0200          1958 Remainder of Bernalillo County (part)                        
 784 35 35300 00603 001       99999 0 004721 0200          2333 Remainder of Bernalillo County (part)                        
 784 35 35300 00603 001       99999 0 004722 0200           355 Remainder of Bernalillo County (part)                        
 784 35 35300 00603 001       99999 0 004723 0200            82 Remainder of Bernalillo County (part)                        
 784 35 35300 00603 001       99999 0 004728 0200             0 Remainder of Bernalillo County (part)                        
 784 35 35300 00603 001       99999 0 004729 0200            40 Remainder of Bernalillo County (part)                        
 784 35 35300 00603 001       99999 0 004730 0200             0 Remainder of Bernalillo County (part)                        
 784 35 35300 00603 001       99999 0 004731 0200             0 Remainder of Bernalillo County (part)                        
 784 35 35300 00603 001       99999 0 004800 0200           200 Remainder of Bernalillo County (part)                        
 784 35 35300 00603 001       99999 0 940100 0200            10 Remainder of Bernalillo County (part)                        
 784 35 35300 00603 001       99999 0 940400 0200           250 Remainder of Bernalillo County (part)                        
 784 35 35300 00603 001       99999 0 945900 0200          1531 Remainder of Bernalillo County (part)                        
 780 35 35300 00604                                      102444 PUMA 00604                                                   
 781 35 35300 00604 001                      0200        102444 Bernalillo County (part)                                     
 783 35 35300 00604 001       02000 1        0200        101151 Albuquerque city (part)                                      
 784 35 35300 00604 001       02000 1 000204 0200          3298 Albuquerque city (part)                                      
 784 35 35300 00604 001       02000 1 000205 0200          3304 Albuquerque city (part)                                      
 784 35 35300 00604 001       02000 1 000208 0200          2823 Albuquerque city (part)                                      
 784 35 35300 00604 001       02000 1 000300 0200          6109 Albuquerque city (part)                                      
 784 35 35300 00604 001       02000 1 000401 0200          4218 Albuquerque city (part)                                      
 784 35 35300 00604 001       02000 1 000402 0200          3568 Albuquerque city (part)                                      
 784 35 35300 00604 001       02000 1 000500 0200          7630 Albuquerque city (part)                                      
 784 35 35300 00604 001       02000 1 000601 0200          3765 Albuquerque city (part)                                      
 784 35 35300 00604 001       02000 1 001101 0200          5046 Albuquerque city (part)                                      
 784 35 35300 00604 001       02000 1 001102 0200          3055 Albuquerque city (part)                                      
 784 35 35300 00604 001       02000 1 001400 0200          3270 Albuquerque city (part)                                      
 784 35 35300 00604 001       02000 1 001500 0200          2932 Albuquerque city (part)                                      
 784 35 35300 00604 001       02000 1 001600 0200          2517 Albuquerque city (part)                                      
 784 35 35300 00604 001       02000 1 001700 0200          4883 Albuquerque city (part)                                      
 784 35 35300 00604 001       02000 1 001800 0200          2401 Albuquerque city (part)                                      
 784 35 35300 00604 001       02000 1 001900 0200          1065 Albuquerque city (part)                                      
 784 35 35300 00604 001       02000 1 002000 0200          2197 Albuquerque city (part)                                      
 784 35 35300 00604 001       02000 1 002100 0200          1738 Albuquerque city (part)                                      
 784 35 35300 00604 001       02000 1 002200 0200          3367 Albuquerque city (part)                                      
 784 35 35300 00604 001       02000 1 002500 0200          1898 Albuquerque city (part)                                      
 784 35 35300 00604 001       02000 1 002600 0200          1367 Albuquerque city (part)                                      
 784 35 35300 00604 001       02000 1 002700 0200          4082 Albuquerque city (part)                                      
 784 35 35300 00604 001       02000 1 002900 0200          3950 Albuquerque city (part)                                      
 784 35 35300 00604 001       02000 1 003001 0200          4577 Albuquerque city (part)                                      
 784 35 35300 00604 001       02000 1 003002 0200          3518 Albuquerque city (part)                                      
 784 35 35300 00604 001       02000 1 003100 0200          2345 Albuquerque city (part)                                      
 784 35 35300 00604 001       02000 1 003201 0200          2918 Albuquerque city (part)                                      
 784 35 35300 00604 001       02000 1 003202 0200          5621 Albuquerque city (part)                                      
 784 35 35300 00604 001       02000 1 003400 0200          3689 Albuquerque city (part)                                      
 783 35 35300 00604 001       43930 0        0200           316 Los Ranchos de Albuquerque village (part)                    
 784 35 35300 00604 001       43930 0 003100 0200           316 Los Ranchos de Albuquerque village (part)                    
 783 35 35300 00604 001       52750 0        0200           507 North Valley CDP (part)                                      
 784 35 35300 00604 001       52750 0 003400 0200           507 North Valley CDP (part)                                      
 783 35 35300 00604 001       99999 0        0200           470 Remainder of Bernalillo County (part)                        
 784 35 35300 00604 001       99999 0 002500 0200            46 Remainder of Bernalillo County (part)                        
 784 35 35300 00604 001       99999 0 003002 0200           394 Remainder of Bernalillo County (part)                        
 784 35 35300 00604 001       99999 0 003100 0200            30 Remainder of Bernalillo County (part)                        
 780 35 35300 00605                                      104539 PUMA 00605                                                   
 781 35 35300 00605 001                      0200        104539 Bernalillo County (part)                                     
 783 35 35300 00605 001       02000 1        0200         54259 Albuquerque city (part)                                      
 784 35 35300 00605 001       02000 1 001200 0200          6388 Albuquerque city (part)                                      
 784 35 35300 00605 001       02000 1 001300 0200          4837 Albuquerque city (part)                                      
 784 35 35300 00605 001       02000 1 002300 0200          2708 Albuquerque city (part)                                      
 784 35 35300 00605 001       02000 1 002401 0200          5268 Albuquerque city (part)                                      
 784 35 35300 00605 001       02000 1 002402 0200          7606 Albuquerque city (part)                                      
 784 35 35300 00605 001       02000 1 004001 0200            90 Albuquerque city (part)                                      
 784 35 35300 00605 001       02000 1 004300 0200           246 Albuquerque city (part)                                      
 784 35 35300 00605 001       02000 1 004401 0200           196 Albuquerque city (part)                                      
 784 35 35300 00605 001       02000 1 004402 0200             0 Albuquerque city (part)                                      
 784 35 35300 00605 001       02000 1 004501 0200             0 Albuquerque city (part)                                      
 784 35 35300 00605 001       02000 1 004603 0200            69 Albuquerque city (part)                                      
 784 35 35300 00605 001       02000 1 004604 0200          1731 Albuquerque city (part)                                      
 784 35 35300 00605 001       02000 1 004705 0200          8642 Albuquerque city (part)                                      
 784 35 35300 00605 001       02000 1 004712 0200          4253 Albuquerque city (part)                                      
 784 35 35300 00605 001       02000 1 004713 0200          4071 Albuquerque city (part)                                      
 784 35 35300 00605 001       02000 1 004714 0200           425 Albuquerque city (part)                                      
 784 35 35300 00605 001       02000 1 004715 0200           544 Albuquerque city (part)                                      
 784 35 35300 00605 001       02000 1 004732 0200          7185 Albuquerque city (part)                                      
 783 35 35300 00605 001       34760 0        0200           496 Isleta Village Proper CDP                                    
 783 35 35300 00605 001       74520 0        0200         39060 South Valley CDP                                             
 783 35 35300 00605 001       99999 0        0200         10724 Remainder of Bernalillo County (part)                        
 784 35 35300 00605 001       99999 0 001200 0200             0 Remainder of Bernalillo County (part)                        
 784 35 35300 00605 001       99999 0 002300 0200            95 Remainder of Bernalillo County (part)                        
 784 35 35300 00605 001       99999 0 004001 0200             0 Remainder of Bernalillo County (part)                        
 784 35 35300 00605 001       99999 0 004300 0200             0 Remainder of Bernalillo County (part)                        
 784 35 35300 00605 001       99999 0 004401 0200             0 Remainder of Bernalillo County (part)                        
 784 35 35300 00605 001       99999 0 004604 0200             0 Remainder of Bernalillo County (part)                        
 784 35 35300 00605 001       99999 0 004705 0200           363 Remainder of Bernalillo County (part)                        
 784 35 35300 00605 001       99999 0 004712 0200           373 Remainder of Bernalillo County (part)                        
 784 35 35300 00605 001       99999 0 004713 0200             0 Remainder of Bernalillo County (part)                        
 784 35 35300 00605 001       99999 0 004714 0200          2851 Remainder of Bernalillo County (part)                        
 784 35 35300 00605 001       99999 0 004715 0200          3757 Remainder of Bernalillo County (part)                        
 784 35 35300 00605 001       99999 0 004732 0200          1580 Remainder of Bernalillo County (part)                        
 784 35 35300 00605 001       99999 0 940200 0200          1662 Remainder of Bernalillo County (part)                        
 784 35 35300 00605 001       99999 0 940300 0200            43 Remainder of Bernalillo County (part)                        
 780 35 35400 00900                                      174682 PUMA 00900                                                   
 781 35 35400 00900 013                      4100        174682 Dona Ana County                                              
 783 35 35400 00900 013       03820 0        4100          7904 Anthony CDP                                                  
 783 35 35400 00900 013       14250 0        4100          6117 Chaparral CDP                                                
 783 35 35400 00900 013       21110 0        4100          1379 Dona Ana CDP                                                 
 783 35 35400 00900 013       31820 0        4100          1673 Hatch village                                                
 783 35 35400 00900 013       39380 1        4100         74267 Las Cruces city                                              
 783 35 35400 00900 013       48060 0        4100          2180 Mesilla town                                                 
 783 35 35400 00900 013       48270 0        4100           948 Mesquite CDP                                                 
 783 35 35400 00900 013       61010 0        4100          1518 Radium Springs CDP                                           
 783 35 35400 00900 013       62900 0        4100           220 Rincon CDP                                                   
 783 35 35400 00900 013       65840 0        4100           795 Salem CDP                                                    
 783 35 35400 00900 013       70700 0        4100          2607 Santa Teresa CDP                                             
 783 35 35400 00900 013       75640 0        4100         13309 Sunland Park city                                            
 783 35 35400 00900 013       81030 0        4100          2732 University Park CDP                                          
 783 35 35400 00900 013       81590 0        4100          3003 Vado CDP                                                     
 783 35 35400 00900 013       84845 0        4100          1323 White Sands CDP                                              
 783 35 35400 00900 013       99999 0        4100         54707 Remainder of Dona Ana County                                 
 780 35 35400 01000                                      123680 PUMA 01000                                                   
 781 35 35400 01000 005                      9999         61382 Chaves County                                                
 783 35 35400 01000 005       20620 0        9999          1235 Dexter town                                                  
 783 35 35400 01000 005       31330 0        9999          1168 Hagerman town                                                
 783 35 35400 01000 005       37840 0        9999           432 Lake Arthur town                                             
 783 35 35400 01000 005       64930 0        9999         45293 Roswell city                                                 
 783 35 35400 01000 005       99999 0        9999         13254 Remainder of Chaves County                                   
 781 35 35400 01000 035                      9999         62298 Otero County                                                 
 783 35 35400 01000 035       01780 0        9999         35582 Alamogordo city                                              
 783 35 35400 01000 035       08440 0        9999          1172 Boles Acres CDP                                              
 783 35 35400 01000 035       16280 0        9999           749 Cloudcroft village                                           
 783 35 35400 01000 035       32940 0        9999          2076 Holloman AFB CDP                                             
 783 35 35400 01000 035       38330 0        9999          1615 La Luz CDP                                                   
 783 35 35400 01000 035       47920 0        9999          1233 Mescalero CDP                                                
 783 35 35400 01000 035       77950 0        9999           309 Timberon CDP                                                 
 783 35 35400 01000 035       79980 0        9999          2864 Tularosa village                                             
 783 35 35400 01000 035       99999 0        9999         16698 Remainder of Otero County                                    
 780 35 35400 01100                                      107169 PUMA 01100                                                   
 781 35 35400 01100 015                      9999         51658 Eddy County                                                  
 783 35 35400 01100 015       05220 0        9999         10692 Artesia city                                                 
 783 35 35400 01100 015       12150 0        9999         25625 Carlsbad city                                                
 783 35 35400 01100 015       12220 0        9999          1245 Carlsbad North CDP                                           
 783 35 35400 01100 015       33290 0        9999           107 Hope village                                                 
 783 35 35400 01100 015       44420 0        9999          1326 Loving village                                               
 783 35 35400 01100 015       99999 0        9999         12663 Remainder of Eddy County                                     
 781 35 35400 01100 025                      9999         55511 Lea County                                                   
 783 35 35400 01100 025       25450 0        9999          2562 Eunice city                                                  
 783 35 35400 01100 025       32520 0        9999         28657 Hobbs city                                                   
 783 35 35400 01100 025       35040 0        9999          1996 Jal city                                                     
 783 35 35400 01100 025       44490 0        9999          9471 Lovington city                                               
 783 35 35400 01100 025       76620 0        9999           683 Tatum town                                                   
 783 35 35400 01100 025       99999 0        9999         12142 Remainder of Lea County                                      
